{
	"swagger": "2.0",
	"host": "plus.dnb.com",
	"schemes": [
		"https"
	],
	"info": {
		"description": "Research Submit Case - Allows customers to place research requests on subject businesses. These requests fall into one of two categories:\r\n 1.D&B has knowledge of the company, but information is either missing or incorrect.\r\n 2. Someone is searching for a company and D&B does not seem to have knowledge of it.\r\n Note: This API is available as part of \"Research\" Add-Ons.",
		"title": "Research: Submit Case",
		"version": "1"
	},
	"basePath": "/",
	"paths": {
		"/v1/researches": {
			"x-DNB-Name": "Research: Submit Case",
			"x-DNB-ID": "researchSubmitCase",
			"post": {
				"description": "Research Submit Case - Allows customers to place research requests on subject businesses. These requests fall into one of two categories:\r\n 1.D&B has knowledge of the company, but information is either missing or incorrect.\r\n 2. Someone is searching for a company and D&B does not seem to have knowledge of it.\r\n Note: This API is available as part of \"Research\" Add-Ons.",
				"operationId": "researchSubmitCase",
				"x-monitoring": "Not Available.",
				"x-monitoring-pdf": "Not Available.",
				"tags": [
					"researchSubmitCase"
				],
				"produces": [
					"application/json;charset=utf-8"
				],
				"responses": {
					"200": {
						"description": "OK",
						"schema": {
							"properties": {
								"transactionDetail": {
									"type": "object",
									"description": "The information used to process this request.",
									"properties": {
										"transactionID": {
											"type": "string",
											"example": "rlh-hi9puyoijk-jop8u-kd-d-1",
											"description": "A value assigned by the Dun & Bradstreet application to uniquely identify this request."
										},
										"customerTransactionID": {
											"type": "string",
											"example": 1234,
											"description": "The customerTransactionID provided in the request"
										},
										"transactionTimestamp": {
											"type": "string",
											"example": "2017-02-21T17:46:19.839Z",
											"description": "The date and time, in ISO 8601 UTC Z standard, when this response was created."
										},
										"serviceVersion": {
											"type": "string",
											"example": 1,
											"description": "The product version number provided in the request."
										}
									},
									"additionalProperties": true
								},
								"inquiryDetail": {
									"type": "object",
									"description": "The details of the input data provided.",
									"properties": {
										"customerReference": {
											"type": "string",
											"example": "Some text to describe the request.",
											"description": "A reference string provided by the customer for this particular transaction."
										},
										"researchRequestType": {
											"type": "string",
											"example": "FullRvw",
											"description": "A high level category of the research offering required by the customer on the inquired subject.\r<br/>\r<br/>Possible Values :\r<br/>* Mini – Request adding a business with basic Identity Data Only\r<br/>* Targeted – Request an update on an existing business using specific data categories such as “Address”, “Line Of Business”, etc.\r<br/>* FullRvw – Request adding a new business or an update on an existing business with full information"
										},
										"organization": {
											"type": "object",
											"description": "Records information that has been provided (ultimately) by a requester on a subject organization for which the requester wants research to be conducted. It contains data that the requester believes to be the correct values. The researcher will need to determine if they are indeed correct.",
											"properties": {
												"duns": {
													"type": "string",
													"example": "345678912",
													"description": "The D-U-N-S Number is D&B's identification number, which provides unique identification of this organization, in accordance with the Data Universal Numbering System (D-U-N-S)."
												},
												"primaryName": {
													"type": "string",
													"example": "Renault Group",
													"description": "The single name by which the organization is primarily known / identified."
												}
											},
											"additionalProperties": true
										}
									},
									"additionalProperties": true
								},
								"researchRequestID": {
									"type": "integer",
									"example": 123456789,
									"description": "A number assigned by D&B that uniquely identifies this research request."
								},
								"caseDetails": {
									"type": "array",
									"description": "Records details identifying all of the cases that were created for this request, assigned to each case. Typically there is just one case for a request, but there could be any number.",
									"items": {
										"properties": {
											"caseID": {
												"type": "integer",
												"example": 2501,
												"description": "A number uniquely identifying a research 'case' that was created for the research submission request."
											},
											"subjectResearchTypes": {
												"type": "array",
												"description": "Records all of the research types and research sub types associated with this research case.",
												"items": {
													"properties": {
														"researchType": {
															"type": "object",
															"description": "Records identifying the information that needs to be researched for the subject, e.g., Enhanced Elements, Financial Information, History, Public Records, Super 7 Elements.",
															"properties": {
																"description": {
																	"type": "string",
																	"example": "Enhanced elements",
																	"description": "Text identifying the information that needs to be researched for the subject, e.g., Enhanced Elements, Financial Information, History, Public Records, Super 7 Elements."
																},
																"dnbCode": {
																	"type": "integer",
																	"example": 33518,
																	"description": "A code identifying the information that needs to be researched for the subject, e.g., Enhanced Elements, Financial Information, History, Public Records, Super 7 Elements.<br/>Refer to Reference code table \"759 [Research Type]\" for all possible values."
																}
															},
															"additionalProperties": true
														},
														"researchSubType": {
															"type": "object",
															"description": "Records precisely what information is to be researched. For example, if the Research Type Code is for 'Public Records' then the available choices are: Bankruptcy, Corporate Details/Business Registration, Judgement, Lien, Suit, UCC/Security.",
															"properties": {
																"description": {
																	"type": "string",
																	"example": "Diverse owned / socioeconomic classification",
																	"description": "Text specifying more precisely what information is to be researched. For example, if the Research Type Code is for 'Public Records' then the available choices are: Bankruptcy, Corporate Details/Business Registration, Judgement, Lien, Suit, UCC/Security."
																},
																"dnbCode": {
																	"type": "integer",
																	"example": 33533,
																	"description": "A code specifying more precisely what information is to be researched. For example, if the Research Type Code is for 'Public Records' then the available choices are: Bankruptcy, Corporate Details/Business Registration, Judgement, Lien, Suit, UCC/Security.<br/>Refer to Reference code table \"760 [Research Sub Type]\" for all possible values."
																}
															},
															"additionalProperties": true
														}
													},
													"additionalProperties": true,
													"type": "object"
												}
											}
										},
										"additionalProperties": true,
										"type": "object"
									}
								},
								"attachmentLinks": {
									"type": "array",
									"description": "An array of pre-signed URLs generated by the system to allow an attachment to be uploaded to Research that have material relevant to the subject organization as supporting documentation for a research request. One URL will be provided for each attachment link that was requested.\r<br/>\r<br/>Note: All file attachments should begin uploading within 20 seconds of receiving the response.",
									"items": {
										"properties": {
											"fileName": {
												"type": "string",
												"example": "Myfile1",
												"description": "Name of the file to be uploaded. Each file has a limit of 5MB in size and each file name should be unique for this request. Only the following file extensions will be accepted: 'txt','jpg','jpeg','png','doc','docx','xls','xlsx','ppt','pptx','pdf','csv','gif','dat'<br/><br/>Max length: 194 chars"
											},
											"url": {
												"type": "string",
												"example": "https://attachmentlink.com/",
												"description": "The domain part of the pre-signed URL to use for uploading the attachment.<br/><br/>Max length: 2000 chars"
											},
											"awsFields": {
												"type": "object",
												"description": "Records the fields provided by AWS in support of a signed URL for uploading attachments.",
												"properties": {
													"acl": {
														"type": "string",
														"example": "public-read",
														"description": "Amazon S3 access control lists (ACLs) enable you to manage access to buckets and objects."
													},
													"Content-Type": {
														"type": "string",
														"example": "multipart/form-data",
														"description": "The Content-Type entity header is used to indicate the media type of the resource."
													},
													"key": {
														"type": "string",
														"example": "attachment-upload/U1/18641928_My_First_Attachment.docx",
														"description": "The path to the specific file location."
													},
													"x-amz-algorithm": {
														"type": "string",
														"example": "AWS4-HMAC-SHA256",
														"description": "Identifies the version of AWS Signature and the algorithm that you used to calculate the signature."
													},
													"x-amz-credential": {
														"type": "string",
														"example": "AKIAIOSFODNN7EXAMPLE/20130721/us-east-1/s3/aws4_request",
														"description": "In addition to your access key ID, this parameter also provides scope (AWS region and service) for which the signature is valid."
													},
													"x-amz-date": {
														"type": "string",
														"example": "2019-08-01T00:00:00.000Z",
														"description": "The date that is used to create the signature. The date and time format must follow the ISO 8601 standard, and must be formatted with the \"yyyyMMddTHHmmssZ\" format. For example if the date and time was \"08/01/2016 15:32:41.982-700\" then it must first be converted to UTC (Coordinated Universal Time) and then submitted as \"20160801T083241Z\"."
													},
													"x-amz-security-token": {
														"type": "string",
														"example": "IQoJb3JpZ2luX2VjEBcaCXVzLWVhc3QtMSJIMEYCIQCm+4zeNTMCw3gGn2+Q6Sm2rttk7Bfp8o8N8Nzg1RRVLQIhALSfAzunqi86aimotMphepkVDburPKl+hJUNYGPRBaGmKuABCGAQAhoMMjkyMTIwMDc1MjY4IgwhZIWDnS/4Upk1F8wqvQErhxewt0LNK0iRgzQXmCKU4mLngr3c22Z7tLXve5UeSs+ggkcvP7WGLWegZWT8CZxAs0NNAAI1Oq08lBF+",
														"description": "You can use temporary security credentials provided by the AWS Security Token Service (AWS STS) to sign a request. The process is the same as using long-term credentials, but requires an additional HTTP header or query string parameter for the security token. The name of the header or query string parameter is X-Amz-Security-Token, and the value is the session token (the string you received from AWS STS when you obtained temporary security credentials)."
													},
													"policy": {
														"type": "string",
														"example": "eyJleHBpcmF0aW9uIjogIjIwMjAtMDUtMTNUMTY6MTk6MzBaIiwgImNvbmRpdGlvbnMiOiBbeyJhY2wiOiAicHVibGljLXJlYWQifSwgWyJjb250ZW50LWxlbmd0aC1yYW5nZSIsIDEsIDUxMjAwMDBdLCB7ImJ1Y2tldCI6ICJpcnNjaC1xMi1kYXRhc3RvcmVzIn0sIHsia2V5IjogImF0dGFjaG1lbnQtdXBsb2FkL1IxMjc5NS8wMDI1OEYzNF8yNjQ4NDk5MzFfQklSLnBkZiJ9LCB7IngtYW16LWFsZ29yaXRobSI6ICJBV1M0LUhNQUM",
														"description": "The policies specify what actions are allowed or denied on what AWS resources."
													},
													"x-amz-signature": {
														"type": "string",
														"example": "733255ef022bec3f2a8701cd61d4b371f3f28c9f193a1f02279211d48d5193d7",
														"description": "Specifies the hex-encoded signature that was calculated from the string to sign and the derived signing key."
													}
												},
												"additionalProperties": true
											}
										},
										"additionalProperties": true,
										"type": "object"
									}
								}
							},
							"description": "",
							"type": "object"
						}
					}
				},
				"security": [],
				"parameters": [
					{
						"in": "body",
						"name": "body",
						"description": "",
						"required": true,
						"schema": {
							"properties": {
								"customerTransactionID": {
									"type": "string",
									"example": "CUST123",
									"description": "Up to 32 characters. A number or text string provided by the requester identifying how this particular research request is known in their system. This is passthrough data that is not used by D&B for conducting research and is instead returned with the D&B resolution so the requester can put the returned information in the proper context, i.e., how the request is known at their location."
								},
								"customerReference": {
									"type": "string",
									"example": "Request sent to D&B on Dec 23, 2018 to update information needed for US GSA making assessment on our company.",
									"description": "Up to 640 characters. Text supplied by the requester describing the request for their own use, from their own perspective. It is pass through data that is returned to the requester along with the D&B resolution; it has no bearing on the processing done by D&B and might not be meaningful to anyone other than the requester."
								},
								"requestorEmails": {
									"type": "array",
									"description": "The destination 'mail' addresses for electronically reaching a third party over the internet with relevant notifications, e.g., a case closed notification providing the research results.<br/><br/>Max 1 occurrence supported currently",
									"items": {
										"properties": {
											"email": {
												"type": "string",
												"example": {
													"text": "cust1@cus.com",
													"hyperlink": "mailto:cust1@cus.com"
												},
												"description": "Up to 256 characters. The email address of the concerned party who needs to be notified on this request."
											},
											"roleType": {
												"type": "integer",
												"example": 19117,
												"description": "A code specifying what role the contact's organization is playing with respect to this research request, e.g., the requester, the submitter, the third party.<br/><br/>Possible values: Code Table: 456 [Role Player Type]"
											}
										},
										"additionalProperties": true,
										"type": "object"
									}
								},
								"researchRequestType": {
									"type": "string",
									"example": "FullRvw",
									"description": "Up to 16 characters. A high level category of the research offering required by the customer on the inquired subject.\r<br/>\r<br/>Possible Values :\r<br/>* Mini – Request adding a business with basic Identity Data Only\r<br/>* Targeted – Request an update on an existing business using specific data categories such as “Address”, “Line Of Business”, etc.\r<br/>* FullRvw – Request adding a new business or an update on an existing business with full information"
								},
								"researchSubTypes": {
									"type": "array",
									"description": "Research Type identifies all the research at the sub-type level that is to be conducted on the subject as per this document, where there will be an entry in this array for each research sub type. <br/>Required only when researchRequestType = \"Targeted\"<br/>Code Table:   760 [ Research Sub-Type ]",
									"items": {
										"example": [
											33549,
											33769
										],
										"type": "integer"
									}
								},
								"organization": {
									"type": "object",
									"description": "Records information that has been provided (ultimately) by a requester on a subject organization for which the requester wants research to be conducted.  It contains data that the requester believes to be the correct values.  The researcher will need to determine if they are indeed correct.",
									"properties": {
										"duns": {
											"type": "string",
											"example": "345678912",
											"description": "Up to 9 characters. The D-U-N-S Number is D&B's identification number, which provides unique identification of this organization, in accordance with the Data Universal Numbering System (D-U-N-S).<br/><br/>Note: at least duns or name and address of the organization is required for submitting a research."
										},
										"primaryName": {
											"type": "string",
											"example": "Renault Group",
											"description": "Up to 240 characters. The single name by which the organization is primarily known / identified.<br/><br/>Note: at least duns or name and address of the organization is required for submitting a research."
										},
										"countryISOAlpha2Code": {
											"type": "string",
											"example": "US",
											"description": "Up to 2 characters. The 2-letter country/market code defined by the International Organization for Standardization (ISO) ISO 3166-1 scheme identifying the country of the subject.<br/><br/>Possible values: ISO 3166-1 Alpha 2"
										},
										"primaryAddress": {
											"type": "object",
											"description": "The details of the subject's primary address.<br/><br/>Note: at least duns or name and address of the organization is required for submitting a research.",
											"properties": {
												"addressCountry": {
													"type": "object",
													"example": "",
													"description": "Records the details of the country in which the business is located.",
													"properties": {
														"isoAlpha2Code": {
															"type": "string",
															"example": "US",
															"description": "Up to 2 characters. The 2-letter country/market code defined by the International Organization for Standardization (ISO) ISO 3166-1 scheme identifying the country of the subject."
														}
													}
												},
												"addressLocality": {
													"type": "object",
													"example": "",
													"description": "Records the details of a city, town, township, village, borough, etc. where the business is located.",
													"properties": {
														"name": {
															"type": "string",
															"example": "Cupertino",
															"description": "Up to 64 characters. Identifies the city, town, township, village, borough, etc. where the business is located."
														}
													}
												},
												"addressRegion": {
													"type": "object",
													"example": "",
													"description": "Records details of the locally governed area which forms part of a centrally governed nation to identify where the business is located.<br/><br/>Note: When performing name and address research for organizations domiciled in the United States and Canada, state or territory is required.",
													"properties": {
														"name": {
															"type": "string",
															"example": "California",
															"description": "Up to 64 characters. The name of a  locally governed area which forms part of a centrally governed nation to identify where the business is located. <br/><br/>Note:  As a guiding principle this is a geographic area which could theoretically exist as a separate nation. In the U.S. this would be a State. In the UK this would be one of the Home Nations.<br/><br/> Note: When performing name and address research for organizations domiciled in the United States and Canada, state or territory is required."
														}
													},
													"additionalProperties": true
												},
												"addressCounty": {
													"type": "object",
													"example": "",
													"description": "Records the details of the county where the business is located.",
													"properties": {
														"name": {
															"type": "string",
															"example": "Santa Clara County",
															"description": "Up to 64 characters. Text recording the name of a county where the business is located."
														}
													},
													"additionalProperties": true
												},
												"postalCode": {
													"type": "string",
													"example": 950142083,
													"description": "Up to 32 characters. An identifier used by the local country Postal Authority to identify where the business is located."
												},
												"streetAddress": {
													"type": "object",
													"description": "Records the details such as address number, or post office box number and street name where the business is located.",
													"properties": {
														"line1": {
															"type": "string",
															"example": "1 INFINITE LOOP",
															"description": "Up to 240 characters. Text recording the address number, or post office box number and street name where the business is located."
														}
													},
													"additionalProperties": true
												}
											},
											"additionalProperties": true
										},
										"telephones": {
											"type": "array",
											"description": "Records details on the Telephone contact information used for voice communication with the subject.<br/><br/>Max 1 occurrence supported currently",
											"items": {
												"properties": {
													"telephoneNumber": {
														"type": "string",
														"example": 176840606,
														"description": "Up to 16 characters. A sequence of digits used by the subject for voice communication in a public switched telephone network.<br/>This sequence of digits includes the area code or city code and Domestic Dialing Code."
													},
													"isdCode": {
														"type": "string",
														"example": "33",
														"description": "Up to 8 characters. The country calling code assigned by the International Telecommunication Union (ITU) required to connect to this Telecommunication Number of the subject country when dialing from outside the subject country; e.g., '1' for the US, '44' for the UK, '91' for India."
													}
												},
												"example": "",
												"type": "object"
											}
										},
										"tradeStyleName": {
											"type": "string",
											"example": "Renault",
											"description": "Up to 240 characters. The name which an organization trades under for commercial purposes  although its registered  legal name used for contracts and other formal situations may be another name."
										},
										"referenceContacts": {
											"type": "array",
											"description": "Records the details of the people associated with the subject organization.<br/><br/>Max 1 occurrence supported currently",
											"items": {
												"properties": {
													"fullName": {
														"type": "string",
														"example": "Leslie Grilloux",
														"description": "Up to 240 characters. The full name of the subject."
													},
													"email": {
														"type": "string",
														"example": "GrillouxL@groupe.renault.com",
														"description": "Up to 256 characters. The email address of the subject."
													},
													"telephones": {
														"type": "array",
														"description": "Records details on the Telephone contact information used for voice communication with the subject.<br/><br/>Max 1 occurrence supported currently",
														"items": {
															"properties": {
																"telephoneNumber": {
																	"type": "string",
																	"example": 176840606,
																	"description": "Up to 16 characters. A sequence of digits used by the subject for voice communication in a public switched telephone network.<br/>This sequence of digits includes the area code or city code and Domestic Dialing Code."
																},
																"isdCode": {
																	"type": "string",
																	"example": "33",
																	"description": "Up to 8 characters. The country calling code assigned by the International Telecommunication Union (ITU) required to connect to this Telecommunication Number of the subject country when dialing from outside the subject country; e.g., '1' for the US, '44' for the UK, '91' for India."
																}
															},
															"additionalProperties": true,
															"type": "object"
														}
													}
												},
												"additionalProperties": true,
												"type": "object"
											}
										},
										"primaryIndustryCode": {
											"type": "object",
											"description": "Records the details of the primary business activity in which an organization is actively engaged using standardized coding schemes such as European NACE and U.S. Standard Industry Classifications (SIC).",
											"properties": {
												"code": {
													"type": "string",
													"example": 3711,
													"description": "Up to 16 characters. An alphanumeric value identifying a business activity based on the scheme specified by the typeText.  For instance, 1611 represents the highway and street construction industry in the U.S. SIC (Standard Industrial Classification) system.<br/>Clarification Note:    These are generally external codes created by an external authoritative body, like the U.S. Office of Management and Budget (OMB), but D&B may have created extensions to more precisely define an activity, as in the case of the SIC 2+2 (the last 4 digits of an 8-digit SIC)."
												},
												"typeDnBCode": {
													"type": "integer",
													"example": 399,
													"description": "Up to 5 characters. A unique code assigned by Dun & Bradstreet to identify the industry coding scheme for this Industry Code, e.g., U.S. Standard Industrial Classification (SIC) 1987, Standard Industry Code - 8 digit, North American Industry Classification System (NAICS), Nomenclature Generale des Activites Economiques dans L`Union Europeenne (NACE).<br/><br/>Possible values: Code Table:  30  [ Industry Code Types ]"
												}
											},
											"additionalProperties": true
										},
										"activity": {
											"type": "string",
											"example": "Constructeur automobile",
											"description": "Up to 256 characters. Text specifying the primary activity engaged in by the subject, e.g., manufacturing aircraft engines, operating a restaurant, providing accounting services."
										},
										"url": {
											"type": "string",
											"example": "groupe.renault.com",
											"description": "Up to 240 characters. The Internet URL (Uniform Resource Locator) which uniquely identifies the propreitary website of the subject or the website preferred by the subject which gives more information on the subject."
										},
										"yearlyRevenue": {
											"type": "object",
											"description": "Records the details of the income received from customers from the sale of the business's goods and/or services.  This means it is the gross sales minus any returns, rebates/discounts, allowances for damages or shortages, shipping expenses passed on to the customer, and amounts due where there is not a reasonable expectation of collection.",
											"properties": {
												"value": {
													"type": "number",
													"example": 67220600000,
													"description": "The monetary value of income received from customers from the sale of the business' goods and/or services.  This means it is the gross sales minus any returns, rebates/discounts, allowances for damages or shortages, shipping expenses passed on to the cust"
												},
												"currency": {
													"type": "string",
													"example": "USD",
													"description": "Up to 3 characters. The three-letter curreny code, defined in the ISO 3166-1 scheme published by International Organization for Standardization (ISO)identifying the type of money in which this amount is expressed, e.g. USD, CAD, GBP, EUR.<br/><br/>Possible values: ISO 4217"
												}
											},
											"additionalProperties": true
										},
										"numberOfEmployees": {
											"type": "object",
											"description": "Records details of the people engaged by an organization to perform its business operations.",
											"properties": {
												"value": {
													"type": "integer",
													"example": 12246,
													"description": "Up to 10 characters. The total number of people engaged by an organization to perform its business operations.Several different Employee Figures for a subject could be recorded, e.g., consolidated, individual entity, headquarters only."
												},
												"informationScopeDnBCode": {
													"type": "integer",
													"example": 9067,
													"description": "Up to 5 characters. A unique code assigned by D&B describing the scope of Number of Employees. E.g. Consolidated, Individual, HQ only. (Often referred to as Employees Here.)<br/><br/>Possible values: 9067 <br/>[Consolidated]"
												}
											},
											"additionalProperties": true
										},
										"startYear": {
											"type": "integer",
											"example": 1984,
											"description": "Up to 4 characters. The year when the subject organization first started operating."
										},
										"controlOwnershipDate": {
											"type": "string",
											"example": "1984-01",
											"description": "Up to 7 characters. The year and month when the subject organization's ownership last changed.  <br/><br/>Possible values: YYYY-MM only"
										},
										"legalForm": {
											"type": "string",
											"example": "Société",
											"description": "Up to 240 characters. Text specifying the legal structure of the subject organization that was registered with the appropriate government agency, e.g., corporation, partnership, proprietorship, non-profit organization, joint venture."
										},
										"mostSeniorPrincipal": {
											"type": "object",
											"description": "Records the details of the most important principal.",
											"properties": {
												"fullName": {
													"type": "string",
													"example": "Thierry Bolloré",
													"description": "Up to 240 characters. The name of the Chief Executive Officer or the highest ranking principal at the subject organization."
												},
												"jobTitle": {
													"type": "string",
													"example": "Chief Executive Officer",
													"description": "Up to 192 characters. Text specifying the title of the highest ranking principal at the subject organization, e.g., Chief Executive Officer (CEO), Owner, Member."
												}
											},
											"additionalProperties": true
										},
										"isActiveBusiness": {
											"type": "boolean",
											"example": true,
											"description": "Whenset to true, it means that the requester believes this should be an active organization (e.g., an actively trading business, an operational government office), implying that D&B has identified it as inactive in at least one product/access system. <br/>When set to false, it means that the requester believes this should be an inactive organization, implying that D&B has identified it as active in at least one product/access system."
										},
										"acquirer": {
											"type": "object",
											"description": "Records the details of the company that has acquired the subject organization or alternatively be a company that merged with the subject organization.",
											"properties": {
												"duns": {
													"type": "string",
													"example": 891234567,
													"description": "Up to 9 characters. The D-U-N-S Number is D&B's identification number, which provides unique identification of this organization, in accordance with the Data Universal Numbering System (D-U-N-S)."
												},
												"organizationName": {
													"type": "string",
													"example": "Daimler AG",
													"description": "Up to 240 characters. The single name by which the organization is primarily known / identified."
												},
												"address": {
													"type": "object",
													"description": "The details of the subject's primary address.",
													"properties": {
														"addressCountry": {
															"type": "object",
															"description": "Records the details of the country in which the business is located.",
															"properties": {
																"isoAlpha2Code": {
																	"type": "string",
																	"example": "US",
																	"description": "Up to 2 characters. The 2-letter country/market code defined by the International Organization for Standardization (ISO) ISO 3166-1 scheme identifying the country of the subject.<br/><br/>Possible values: ISO 3166-1 Alpha 2"
																}
															},
															"additionalProperties": true
														},
														"addressLocality": {
															"type": "object",
															"description": "Records the details of a city, town, township, village, borough, etc. where the business is located.",
															"properties": {
																"name": {
																	"type": "string",
																	"example": "Cupertino",
																	"description": "Up to 64 characters. Identifies the city, town, township, village, borough, etc. where the business is located."
																}
															},
															"additionalProperties": true
														},
														"addressRegion": {
															"type": "object",
															"description": "Records details of the locally governed area which forms part of a centrally governed nation to identify where the business is located.",
															"properties": {
																"name": {
																	"type": "string",
																	"example": "California",
																	"description": "Up to 64 characters. The name of a  locally governed area which forms part of a centrally governed nation to identify where the business is located. <br/>Note:  As a guiding principle this is a geographic area which could theoretically exist as a separate nation. In the U.S. this would be a State. In the UK this would be one of the Home Nations."
																}
															},
															"additionalProperties": true
														},
														"addressCounty": {
															"type": "object",
															"description": "Records the details of the county where the business is located.",
															"properties": {
																"name": {
																	"type": "string",
																	"example": "Santa Clara County",
																	"description": "Up to 64 characters. Text recording the name of a county where the business is located."
																}
															},
															"additionalProperties": true
														},
														"postalCode": {
															"type": "string",
															"example": 950142083,
															"description": "Up to 32 characters. An identifier used by the local country Postal Authority to identify where the business is located."
														},
														"streetAddress": {
															"type": "object",
															"description": "Records the details such as address number, or post office box number and street name where the business is located.",
															"properties": {
																"line1": {
																	"type": "string",
																	"example": "1 INFINITE LOOP",
																	"description": "Up to 240 characters. Text recording the address number, or post office box number and street name where the business is located."
																}
															},
															"additionalProperties": true
														}
													},
													"additionalProperties": true
												},
												"telephone": {
													"type": "object",
													"description": "Records details on the Telephone contact information used for voice communication with the subject.",
													"properties": {
														"telephoneNumber": {
															"type": "string",
															"example": 176840606,
															"description": "Up to 16 characters. A sequence of digits used by the subject for voice communication in a public switched telephone network.<br/>This sequence of digits includes the area code or city code and Domestic Dialing Code."
														},
														"isdCode": {
															"type": "string",
															"example": "33",
															"description": "Up to 8 characters. The country calling code assigned by the International Telecommunication Union (ITU) required to connect to this Telecommunication Number of the subject country when dialing from outside the subject country; e.g., '1' for the US, '44' for the UK, '91' for India."
														}
													},
													"additionalProperties": true
												}
											},
											"additionalProperties": true
										},
										"owner": {
											"type": "object",
											"description": "Records the details of the company that the requester believes has either a controlling interest in the subject organization, or in the case where the subject is a branch, is the actual legal entity.",
											"properties": {
												"duns": {
													"type": "string",
													"example": 891234567,
													"description": "Up to 9 characters. The D-U-N-S Number is D&B's identification number, which provides unique identification of this organization, in accordance with the Data Universal Numbering System (D-U-N-S)."
												},
												"organizationName": {
													"type": "string",
													"example": "Daimler AG",
													"description": "Up to 240 characters. The single name by which the organization is primarily known / identified."
												},
												"address": {
													"type": "object",
													"description": "The details of the subject's primary address.",
													"properties": {
														"addressCountry": {
															"type": "object",
															"description": "Records the details of the country in which the business is located.",
															"properties": {
																"isoAlpha2Code": {
																	"type": "string",
																	"example": "US",
																	"description": "Up to 2 characters. The 2-letter country/market code defined by the International Organization for Standardization (ISO) ISO 3166-1 scheme identifying the country of the subject."
																}
															},
															"additionalProperties": true
														},
														"addressLocality": {
															"type": "object",
															"description": "Records the details of a city, town, township, village, borough, etc. where the business is located.",
															"properties": {
																"name": {
																	"type": "string",
																	"example": "Cupertino",
																	"description": "Up to 64 characters. Identifies the city, town, township, village, borough, etc. where the business is located."
																}
															},
															"additionalProperties": true
														},
														"addressRegion": {
															"type": "object",
															"description": "Records details of the locally governed area which forms part of a centrally governed nation to identify where the business is located.",
															"properties": {
																"name": {
																	"type": "string",
																	"example": "California",
																	"description": "Up to 64 characters. The name of a  locally governed area which forms part of a centrally governed nation to identify where the business is located. <br/>Note:  As a guiding principle this is a geographic area which could theoretically exist as a separate nation. In the U.S. this would be a State. In the UK this would be one of the Home Nations."
																}
															},
															"additionalProperties": true
														},
														"addressCounty": {
															"type": "object",
															"description": "Records the details of the county where the business is located.",
															"properties": {
																"name": {
																	"type": "string",
																	"example": "Santa Clara County",
																	"description": "Up to 64 characters. Text recording the name of a county where the business is located."
																}
															},
															"additionalProperties": true
														},
														"postalCode": {
															"type": "string",
															"example": 950142083,
															"description": "Up to 32 characters. An identifier used by the local country Postal Authority to identify where the business is located."
														},
														"streetAddress": {
															"type": "object",
															"description": "Records the details such as address number, or post office box number and street name where the business is located.",
															"properties": {
																"line1": {
																	"type": "string",
																	"example": "1 INFINITE LOOP",
																	"description": "Up to 240 characters. Text recording the address number, or post office box number and street name where the business is located."
																}
															},
															"additionalProperties": true
														}
													},
													"additionalProperties": true
												},
												"telephone": {
													"type": "object",
													"description": "Records details on the Telephone contact information used for voice communication with the subject.",
													"properties": {
														"telephoneNumber": {
															"type": "string",
															"example": 176840606,
															"description": "Up to 16 characters. A sequence of digits used by the subject for voice communication in a public switched telephone network.<br/>This sequence of digits includes the area code or city code and Domestic Dialing Code."
														},
														"isdCode": {
															"type": "string",
															"example": "33",
															"description": "Up to 8 characters. The country calling code assigned by the International Telecommunication Union (ITU) required to connect to this Telecommunication Number of the subject country when dialing from outside the subject country; e.g., '1' for the US, '44' for the UK, '91' for India."
														}
													},
													"additionalProperties": true
												},
												"isParent": {
													"type": "boolean",
													"example": true,
													"description": "When set to true it means that the requester believes that this company is the parent of the inquired subject. <br/>When set to false it means that the requester believes that this company is not the parent of the inquired subject."
												}
											},
											"additionalProperties": true
										},
										"childOrganizations": {
											"type": "array",
											"description": "Records details of the children (immediate branches and subsidiaries) of the subject business that the requester provided.<br/><br/>Max 4 occurrences supported currently",
											"items": {
												"properties": {
													"duns": {
														"type": "string",
														"example": 891234567,
														"description": "Up to 9 characters. The D-U-N-S Number is D&B's identification number, which provides unique identification of this organization, in accordance with the Data Universal Numbering System (D-U-N-S)."
													},
													"organizationName": {
														"type": "string",
														"example": "Daimler AG",
														"description": "Up to 240 characters. The single name by which the organization is primarily known / identified."
													},
													"address": {
														"type": "object",
														"description": "The details of the subject's primary address.",
														"properties": {
															"addressCountry": {
																"type": "object",
																"description": "Records the details of the country in which the business is located.",
																"properties": {
																	"isoAlpha2Code": {
																		"type": "string",
																		"example": "US",
																		"description": "Up to 2 characters. The 2-letter country/market code defined by the International Organization for Standardization (ISO) ISO 3166-1 scheme identifying the country of the subject."
																	}
																},
																"additionalProperties": true
															},
															"addressLocality": {
																"type": "object",
																"description": "Records the details of a city, town, township, village, borough, etc. where the business is located.",
																"properties": {
																	"name": {
																		"type": "string",
																		"example": "Cupertino",
																		"description": "Up to 64 characters. Identifies the city, town, township, village, borough, etc. where the business is located."
																	}
																},
																"additionalProperties": true
															},
															"addressRegion": {
																"type": "object",
																"description": "Records details of the locally governed area which forms part of a centrally governed nation to identify where the business is located.",
																"properties": {
																	"name": {
																		"type": "string",
																		"example": "California",
																		"description": "Up to 64 characters. The name of a  locally governed area which forms part of a centrally governed nation to identify where the business is located. <br/>Note:  As a guiding principle this is a geographic area which could theoretically exist as a separate nation. In the U.S. this would be a State. In the UK this would be one of the Home Nations."
																	}
																},
																"additionalProperties": true
															},
															"addressCounty": {
																"type": "object",
																"description": "Records the details of the county where the business is located.",
																"properties": {
																	"name": {
																		"type": "string",
																		"example": "Santa Clara County",
																		"description": "Up to 64 characters. Text recording the name of a county where the business is located."
																	}
																},
																"additionalProperties": true
															},
															"postalCode": {
																"type": "string",
																"example": 950142083,
																"description": "Up to 32 characters. An identifier used by the local country Postal Authority to identify where the business is located."
															},
															"streetAddress": {
																"type": "object",
																"description": "Records the details such as address number, or post office box number and street name where the business is located.",
																"properties": {
																	"line1": {
																		"type": "string",
																		"example": "1 INFINITE LOOP",
																		"description": "Up to 240 characters. Text recording the address number, or post office box number and street name where the business is located."
																	}
																},
																"additionalProperties": true
															}
														},
														"additionalProperties": true
													},
													"telephone": {
														"type": "object",
														"description": "Records details on the Telephone contact information used for voice communication with the subject.",
														"properties": {
															"telephoneNumber": {
																"type": "string",
																"example": 176840606,
																"description": "Up to 16 characters. A sequence of digits used by the subject for voice communication in a public switched telephone network.<br/>This sequence of digits includes the area code or city code and Domestic Dialing Code."
															},
															"isdCode": {
																"type": "string",
																"example": "33",
																"description": "Up to 8 characters. The country calling code assigned by the International Telecommunication Union (ITU) required to connect to this Telecommunication Number of the subject country when dialing from outside the subject country; e.g., '1' for the US, '44' for the UK, '91' for India."
															}
														},
														"additionalProperties": true
													},
													"isBranch": {
														"type": "boolean",
														"example": true,
														"description": "When set to true it means that the requester believes that this company is a branch of the inquired subject. <br/>When set to false it means that the requester believes that this company is a subsidiary of the inquired subject."
													},
													"recommendedAction": {
														"type": "integer",
														"example": 33995,
														"description": "A code specifying the action the requester believes needs to be taken with respect to this child linkage, e.g., remove the linkage, correct the linkage (replace or add), create a new D-U-N-S Number to add/fix the linkage."
													}
												},
												"additionalProperties": true,
												"type": "object"
											}
										},
										"shareOwnership": {
											"type": "array",
											"description": "Records details of the share owners of the subject organization that the requester provided.<br/><br/>Max 5 occurrences supported currently",
											"items": {
												"properties": {
													"shareOwnerName": {
														"type": "string",
														"example": "Government of France",
														"description": "Up to 240 characters. The name of the person or organization who owns common shares in the subject organization."
													},
													"ownershipPercentage": {
														"type": "number",
														"example": 21.5,
														"description": "Up to 100 characters. A number specifying what percentage of shares in the subject organization are owned by the person or organization."
													}
												},
												"additionalProperties": true,
												"type": "object"
											}
										},
										"principals": {
											"type": "array",
											"description": "Records details of the executive level employees of the subject organization that the requester provided.<br/><br/>Max 5 occurrences supported currently",
											"items": {
												"properties": {
													"principalName": {
														"type": "string",
														"example": "Clotilde Delbos",
														"description": "Up to 240 characters. The name of a person who is one of the more senior (executive) level employees of the subject organization."
													},
													"jobTitle": {
														"type": "string",
														"example": "Chief Financial Officer & Executive Vice President",
														"description": "Up to 192 characters. Text specifying the designation for the position held by the principal, e.g., Chief Financial Officer, Corporate General Partner, Senior Vice President Marketing."
													}
												},
												"additionalProperties": true,
												"type": "object"
											}
										},
										"relatedOrganizations": {
											"type": "array",
											"description": "Records details of the one or more organizations related to, or affiliated with, the subject organization that were provided by the requester in the belief that they should be different in some respect from what D&B has or doesn't have with regard to related organizations. <br/><br/>Max 5 occurrences supported currently",
											"items": {
												"properties": {
													"organizationName": {
														"type": "string",
														"example": "Clotilde Delbos",
														"description": "Up to 240 characters. The name of an organization that has been provided because it might be related to, or affiliated with, the subject organization (e.g., it is a minority owner of the subject organization, it shares an owner in common with the subject organization)."
													}
												},
												"additionalProperties": true,
												"type": "object"
											}
										},
										"duplicateDUNS": {
											"type": "array",
											"description": "Up to 9 characters. Records the D-U-N-S Numbers that the requester believes to be a duplicate of the subject organization.<br/><br/>Max 5 values supported currently",
											"items": {
												"example": [
													"381175539",
													"372489163"
												],
												"type": "string"
											}
										},
										"requestorSubjectID": {
											"type": "string",
											"example": "REN1892-3",
											"description": "Up to 50 characters. The number assigned by the requester in their system to identify this subject.  This is 'pass-through' information that is not of any interest to D&B, but is to be communicated back to the requester so they understand who the subject is from their perspective."
										}
									},
									"additionalProperties": true
								},
								"researchComments": {
									"type": "array",
									"description": "Records one or more remarks entered to further explain the request.",
									"items": {
										"properties": {
											"typeDnBCode": {
												"type": "integer",
												"example": 23456,
												"description": "Up to 5 characters. A code specifying the nature of this research comment. <br/>(1) Research Requestor Comment is applicable for all the 3 types of research.<br/>(2) Financial Figures Comment , Financial Ratios comment and Remove Financial Statement Comment are applicable only for Targeted Research. <br/><br/>Code Table:   761 [ Research Comment Type ]"
											},
											"comment": {
												"type": "string",
												"example": "This request is of the utmost urgency.",
												"description": "Up to 4000 characters. Text entered by a requestor, a submitter on behalf of a requestor, or a researcher with information pertinent to conducting the research or reporting on its results.  As some examples, it may be an explanation for a challenge, information on what the data should be instead, a message that the data change cannot be seen, or a resolution comment."
											}
										},
										"additionalProperties": true,
										"type": "object"
									}
								},
								"includeAttachments": {
									"type": "array",
									"description": "An array of files which the submitter would like to attach to the research request, that have material relevant to the subject organization as supporting documentation for a research request.\r<br/>\r<br/>Max 1 value\r<br/>\r<br/>Note: All file attachments should begin uploading within 20 seconds of receiving the response.",
									"items": {
										"properties": {
											"fileName": {
												"type": "string",
												"example": "MyFile1",
												"description": "Name of the file to be uploaded. Each file has a limit of 5MB in size and each file name should be unique for this request. Only the following file extensions will be accepted: 'txt','jpg','jpeg','png','doc','docx','xls','xlsx','ppt','pptx','pdf','csv','gif','dat'<br/>Max length: 194 chars"
											}
										},
										"additionalProperties": true,
										"type": "object"
									}
								}
							}
						}
					},
					{
						"in": "header",
						"name": "Authorization",
						"description": "The access token provided by authentication.",
						"required": true,
						"type": "string",
						"x-example": "Bearer alphanumerictoken"
					},
					{
						"in": "header",
						"name": "Content-Type",
						"description": "The content type must be &quot;application/json&quot;.",
						"required": true,
						"type": "string",
						"x-example": "application/json"
					}
				]
			}
		}
	}
}