{
  "swagger" : "2.0",
  "info" : {
    "description" : "The public workday API for Expense product",
    "version" : "v1",
    "title" : "expense"
  },
  "host" : "<tenant hostname>",
  "basePath" : "/expense/v1",
  "tags" : [ {
    "name" : "reports"
  }, {
    "name" : "entries"
  }, {
    "name" : "expenseItems"
  } ],
  "schemes" : [ "https" ],
  "paths" : {
    "/reports" : {
      "get" : {
        "tags" : [ "reports" ],
        "description" : "Secured by: Self-Service: Expense Report",
        "produces" : [ "application/json" ],
        "parameters" : [ {
          "name" : "toDate",
          "in" : "query",
          "description" : "Creation Date label to be used for REST API",
          "required" : false,
          "type" : "string"
        }, {
          "name" : "fromDate",
          "in" : "query",
          "description" : "Creation Date label to be used for REST API",
          "required" : false,
          "type" : "string"
        }, {
          "name" : "expenseReportMemo",
          "in" : "query",
          "description" : "Memo label to be used for REST API",
          "required" : false,
          "type" : "string"
        }, {
          "name" : "expenseReportStatus",
          "in" : "query",
          "description" : "Status label to be used for REST API",
          "required" : false,
          "type" : "array",
          "items" : {
            "type" : "string"
          },
          "collectionFormat" : "multi"
        }, {
          "name" : "limit",
          "in" : "query",
          "description" : "The number of instances to retrieve",
          "required" : false,
          "type" : "integer",
          "format" : "int64"
        }, {
          "name" : "offset",
          "in" : "query",
          "description" : "The offset in the collection",
          "required" : false,
          "type" : "integer",
          "format" : "int64"
        } ],
        "responses" : {
          "200" : {
            "description" : "getting response",
            "schema" : {
              "type" : "object",
              "description" : "collection something or other",
              "properties" : {
                "data" : {
                  "type" : "array",
                  "items" : {
                    "$ref" : "#/definitions/reportServiceRepresentation_8a2cd1fe55c610001050b1dcb7ae00c7"
                  }
                },
                "total" : {
                  "type" : "integer",
                  "format" : "int64"
                }
              }
            }
          },
          "default" : {
            "description" : "an error occurred",
            "schema" : {
              "$ref" : "#/definitions/ERROR_MODEL_REFERENCE"
            }
          }
        }
      },
      "post" : {
        "tags" : [ "reports" ],
        "description" : "Secured by: Self-Service: Expense Report",
        "produces" : [ "application/json" ],
        "parameters" : [ {
          "name" : "toDate",
          "in" : "query",
          "description" : "Creation Date label to be used for REST API",
          "required" : false,
          "type" : "string"
        }, {
          "name" : "fromDate",
          "in" : "query",
          "description" : "Creation Date label to be used for REST API",
          "required" : false,
          "type" : "string"
        }, {
          "name" : "expenseReportMemo",
          "in" : "query",
          "description" : "Memo label to be used for REST API",
          "required" : false,
          "type" : "string"
        }, {
          "name" : "expenseReportStatus",
          "in" : "query",
          "description" : "Status label to be used for REST API",
          "required" : false,
          "type" : "array",
          "items" : {
            "type" : "string"
          },
          "collectionFormat" : "multi"
        }, {
          "in" : "body",
          "name" : "reportPostServiceRepresentation",
          "required" : true,
          "schema" : {
            "$ref" : "#/definitions/reportPostServiceRepresentation_15633761a1ba100008f9c55e17020036"
          }
        } ],
        "responses" : {
          "default" : {
            "description" : "an error occurred",
            "schema" : {
              "$ref" : "#/definitions/ERROR_MODEL_REFERENCE"
            }
          },
          "201" : {
            "description" : "posting response",
            "schema" : {
              "$ref" : "#/definitions/reportPostServiceRepresentation_15633761a1ba100008f9c55e17020036"
            }
          },
          "400" : {
            "description" : "a validation error occurred (https://community.workday.com/rest/error-messages)",
            "schema" : {
              "$ref" : "#/definitions/VALIDATION_ERROR_MODEL_REFERENCE"
            }
          }
        }
      }
    },
    "/reports/{ID}/submit" : {
      "post" : {
        "tags" : [ "reports" ],
        "description" : "Secured by: Submit Expense Report (REST API)",
        "produces" : [ "application/json" ],
        "parameters" : [ {
          "name" : "ID",
          "in" : "path",
          "description" : "ID of specified Resource instance",
          "required" : true,
          "type" : "string"
        }, {
          "in" : "body",
          "name" : "submitExpenseReportRepresentation",
          "required" : true,
          "schema" : {
            "$ref" : "#/definitions/submitExpenseReportRepresentation_104b24418b4010000cbe2b6be1762d9a"
          }
        } ],
        "responses" : {
          "default" : {
            "description" : "an error occurred",
            "schema" : {
              "$ref" : "#/definitions/ERROR_MODEL_REFERENCE"
            }
          },
          "201" : {
            "description" : "posting response",
            "schema" : {
              "$ref" : "#/definitions/submitExpenseReportRepresentation_104b24418b4010000cbe2b6be1762d9a"
            }
          },
          "400" : {
            "description" : "a validation error occurred (https://community.workday.com/rest/error-messages)",
            "schema" : {
              "$ref" : "#/definitions/VALIDATION_ERROR_MODEL_REFERENCE"
            }
          }
        }
      }
    },
    "/reports/{ID}" : {
      "get" : {
        "tags" : [ "reports" ],
        "description" : "Secured by: Self-Service: Expense Report",
        "produces" : [ "application/json" ],
        "parameters" : [ {
          "name" : "ID",
          "in" : "path",
          "description" : "ID of specified Resource instance",
          "required" : true,
          "type" : "string"
        } ],
        "responses" : {
          "200" : {
            "description" : "getting response",
            "schema" : {
              "$ref" : "#/definitions/reportServiceRepresentation_8a2cd1fe55c610001050b1dcb7ae00c7"
            }
          },
          "default" : {
            "description" : "an error occurred",
            "schema" : {
              "$ref" : "#/definitions/ERROR_MODEL_REFERENCE"
            }
          }
        }
      }
    },
    "/reports/{ID}/lines" : {
      "post" : {
        "tags" : [ "reports" ],
        "description" : "Secured by: Self-Service: Expense Report",
        "produces" : [ "application/json" ],
        "parameters" : [ {
          "name" : "ID",
          "in" : "path",
          "description" : "ID of specified Resource instance",
          "required" : true,
          "type" : "string"
        }, {
          "in" : "body",
          "name" : "postExpenseReportLineRepresentation",
          "required" : true,
          "schema" : {
            "$ref" : "#/definitions/postExpenseReportLineRepresentation_1830200d28b6100004253cd94f0b0025"
          }
        } ],
        "responses" : {
          "default" : {
            "description" : "an error occurred",
            "schema" : {
              "$ref" : "#/definitions/ERROR_MODEL_REFERENCE"
            }
          },
          "201" : {
            "description" : "posting response",
            "schema" : {
              "$ref" : "#/definitions/postExpenseReportLineRepresentation_1830200d28b6100004253cd94f0b0025"
            }
          },
          "400" : {
            "description" : "a validation error occurred (https://community.workday.com/rest/error-messages)",
            "schema" : {
              "$ref" : "#/definitions/VALIDATION_ERROR_MODEL_REFERENCE"
            }
          }
        }
      }
    },
    "/entries" : {
      "get" : {
        "tags" : [ "entries" ],
        "description" : "Secured by: Self-Service: Expense Report. Contains attachment(s)",
        "produces" : [ "application/json" ],
        "parameters" : [ {
          "name" : "toDate",
          "in" : "query",
          "description" : "Date of Expense Entry",
          "required" : false,
          "type" : "string"
        }, {
          "name" : "expenseEntryStatus",
          "in" : "query",
          "description" : "Expense Status",
          "required" : false,
          "type" : "string"
        }, {
          "name" : "fromDate",
          "in" : "query",
          "description" : "Date of Expense Entry",
          "required" : false,
          "type" : "string"
        }, {
          "name" : "entryType",
          "in" : "query",
          "description" : "Identifies the class type of the expense instance.",
          "required" : false,
          "type" : "string"
        }, {
          "name" : "limit",
          "in" : "query",
          "description" : "The number of instances to retrieve",
          "required" : false,
          "type" : "integer",
          "format" : "int64"
        }, {
          "name" : "offset",
          "in" : "query",
          "description" : "The offset in the collection",
          "required" : false,
          "type" : "integer",
          "format" : "int64"
        } ],
        "responses" : {
          "200" : {
            "description" : "getting response",
            "schema" : {
              "type" : "object",
              "description" : "collection something or other",
              "properties" : {
                "data" : {
                  "type" : "array",
                  "items" : {
                    "$ref" : "#/definitions/expenseEntryServiceRepresentation_04ce195ed8e1100006b9abb50a91009b"
                  }
                },
                "total" : {
                  "type" : "integer",
                  "format" : "int64"
                }
              }
            }
          },
          "default" : {
            "description" : "an error occurred",
            "schema" : {
              "$ref" : "#/definitions/ERROR_MODEL_REFERENCE"
            }
          }
        }
      },
      "post" : {
        "tags" : [ "entries" ],
        "description" : "Secured by: Self-Service: Expense Report. Contains attachment(s)",
        "produces" : [ "application/json" ],
        "parameters" : [ {
          "name" : "toDate",
          "in" : "query",
          "description" : "Date of Expense Entry",
          "required" : false,
          "type" : "string"
        }, {
          "name" : "expenseEntryStatus",
          "in" : "query",
          "description" : "Expense Status",
          "required" : false,
          "type" : "string"
        }, {
          "name" : "fromDate",
          "in" : "query",
          "description" : "Date of Expense Entry",
          "required" : false,
          "type" : "string"
        }, {
          "name" : "entryType",
          "in" : "query",
          "description" : "Identifies the class type of the expense instance.",
          "required" : false,
          "type" : "string"
        }, {
          "in" : "body",
          "name" : "entryServiceRepresentation",
          "required" : true,
          "schema" : {
            "$ref" : "#/definitions/entryServiceRepresentation_f953826a7423100009260722651a0031"
          }
        } ],
        "responses" : {
          "default" : {
            "description" : "an error occurred",
            "schema" : {
              "$ref" : "#/definitions/ERROR_MODEL_REFERENCE"
            }
          },
          "201" : {
            "description" : "posting file",
            "schema" : {
              "$ref" : "#/definitions/entryServiceRepresentation_f953826a7423100009260722651a0031"
            }
          },
          "400" : {
            "description" : "a validation error occurred (https://community.workday.com/rest/error-messages)",
            "schema" : {
              "$ref" : "#/definitions/VALIDATION_ERROR_MODEL_REFERENCE"
            }
          }
        }
      }
    },
    "/entries/{ID}" : {
      "get" : {
        "tags" : [ "entries" ],
        "description" : "Secured by: Self-Service: Expense Report. Contains attachment(s)",
        "produces" : [ "application/json" ],
        "parameters" : [ {
          "name" : "ID",
          "in" : "path",
          "description" : "ID of specified Resource instance",
          "required" : true,
          "type" : "string"
        } ],
        "responses" : {
          "200" : {
            "description" : "getting response",
            "schema" : {
              "$ref" : "#/definitions/expenseEntryServiceRepresentation_04ce195ed8e1100006b9abb50a91009b"
            }
          },
          "default" : {
            "description" : "an error occurred",
            "schema" : {
              "$ref" : "#/definitions/ERROR_MODEL_REFERENCE"
            }
          }
        }
      },
      "put" : {
        "tags" : [ "entries" ],
        "description" : "Secured by: Self-Service: Expense Report. Contains attachment(s)",
        "produces" : [ "application/json" ],
        "parameters" : [ {
          "name" : "ID",
          "in" : "path",
          "description" : "ID of specified Resource instance",
          "required" : true,
          "type" : "string"
        }, {
          "in" : "body",
          "name" : "entryServicePUTRepresentation",
          "required" : true,
          "schema" : {
            "$ref" : "#/definitions/entryServicePUTRepresentation_66c3ac49ebb710001d691bc579b30022"
          }
        } ],
        "responses" : {
          "200" : {
            "description" : "put file",
            "schema" : {
              "$ref" : "#/definitions/entryServicePUTRepresentation_66c3ac49ebb710001d691bc579b30022"
            }
          },
          "default" : {
            "description" : "an error occurred",
            "schema" : {
              "$ref" : "#/definitions/ERROR_MODEL_REFERENCE"
            }
          },
          "400" : {
            "description" : "a validation error occurred (https://community.workday.com/rest/error-messages)",
            "schema" : {
              "$ref" : "#/definitions/VALIDATION_ERROR_MODEL_REFERENCE"
            }
          }
        }
      },
      "delete" : {
        "tags" : [ "entries" ],
        "description" : "Secured by: Self-Service: Expense Report",
        "produces" : [ "application/json" ],
        "parameters" : [ {
          "name" : "ID",
          "in" : "path",
          "description" : "ID of specified Resource instance",
          "required" : true,
          "type" : "string"
        } ],
        "responses" : {
          "200" : {
            "description" : "deleting response"
          },
          "default" : {
            "description" : "an error occurred",
            "schema" : {
              "$ref" : "#/definitions/ERROR_MODEL_REFERENCE"
            }
          },
          "400" : {
            "description" : "a validation error occurred (https://community.workday.com/rest/error-messages)",
            "schema" : {
              "$ref" : "#/definitions/VALIDATION_ERROR_MODEL_REFERENCE"
            }
          }
        }
      },
      "patch" : {
        "tags" : [ "entries" ],
        "description" : "Secured by: Self-Service: Expense Report. Contains attachment(s)",
        "produces" : [ "application/json" ],
        "parameters" : [ {
          "name" : "ID",
          "in" : "path",
          "description" : "ID of specified Resource instance",
          "required" : true,
          "type" : "string"
        }, {
          "in" : "body",
          "name" : "entryServicePUTRepresentation",
          "required" : true,
          "schema" : {
            "$ref" : "#/definitions/entryServicePUTRepresentation_66c3ac49ebb710001d691bc579b30022"
          }
        } ],
        "responses" : {
          "200" : {
            "description" : "put file",
            "schema" : {
              "$ref" : "#/definitions/entryServicePUTRepresentation_66c3ac49ebb710001d691bc579b30022"
            }
          },
          "default" : {
            "description" : "an error occurred",
            "schema" : {
              "$ref" : "#/definitions/ERROR_MODEL_REFERENCE"
            }
          },
          "400" : {
            "description" : "a validation error occurred (https://community.workday.com/rest/error-messages)",
            "schema" : {
              "$ref" : "#/definitions/VALIDATION_ERROR_MODEL_REFERENCE"
            }
          }
        }
      }
    },
    "/entries/{ID}/attachments" : {
      "post" : {
        "tags" : [ "entries" ],
        "description" : "Secured by: Self-Service: Expense Report. Contains attachment(s)",
        "produces" : [ "application/json" ],
        "parameters" : [ {
          "name" : "ID",
          "in" : "path",
          "description" : "ID of specified Resource instance",
          "required" : true,
          "type" : "string"
        }, {
          "in" : "body",
          "name" : "expenseEntryImage",
          "required" : true,
          "schema" : {
            "$ref" : "#/definitions/expenseEntryImage_0359e103f67510000bc3d59813370009"
          }
        } ],
        "responses" : {
          "default" : {
            "description" : "an error occurred",
            "schema" : {
              "$ref" : "#/definitions/ERROR_MODEL_REFERENCE"
            }
          },
          "201" : {
            "description" : "posting file",
            "schema" : {
              "$ref" : "#/definitions/expenseEntryImage_0359e103f67510000bc3d59813370009"
            }
          },
          "400" : {
            "description" : "a validation error occurred (https://community.workday.com/rest/error-messages)",
            "schema" : {
              "$ref" : "#/definitions/VALIDATION_ERROR_MODEL_REFERENCE"
            }
          }
        }
      }
    },
    "/expenseItems" : {
      "get" : {
        "tags" : [ "expenseItems" ],
        "description" : "Secured by: View: Expense Item, Access Expense Item (Segmented)",
        "produces" : [ "application/json" ],
        "parameters" : [ {
          "name" : "disallowFixedItems",
          "in" : "query",
          "description" : "Is this expense item validated for a fixed amount?",
          "required" : false,
          "type" : "boolean"
        }, {
          "name" : "searchString",
          "in" : "query",
          "description" : "Request string used to retrieve the Expense Items",
          "required" : false,
          "type" : "string"
        }, {
          "name" : "limit",
          "in" : "query",
          "description" : "The number of instances to retrieve",
          "required" : false,
          "type" : "integer",
          "format" : "int64"
        }, {
          "name" : "offset",
          "in" : "query",
          "description" : "The offset in the collection",
          "required" : false,
          "type" : "integer",
          "format" : "int64"
        } ],
        "responses" : {
          "200" : {
            "description" : "getting response",
            "schema" : {
              "type" : "object",
              "description" : "collection something or other",
              "properties" : {
                "data" : {
                  "type" : "array",
                  "items" : {
                    "$ref" : "#/definitions/expenseItemsServiceRepresentation_978f4a3fe47110001a3243426e540060"
                  }
                },
                "total" : {
                  "type" : "integer",
                  "format" : "int64"
                }
              }
            }
          },
          "default" : {
            "description" : "an error occurred",
            "schema" : {
              "$ref" : "#/definitions/ERROR_MODEL_REFERENCE"
            }
          }
        }
      }
    },
    "/expenseItems/{ID}" : {
      "get" : {
        "tags" : [ "expenseItems" ],
        "description" : "Secured by: View: Expense Item, Access Expense Item (Segmented)",
        "produces" : [ "application/json" ],
        "parameters" : [ {
          "name" : "ID",
          "in" : "path",
          "description" : "ID of specified Resource instance",
          "required" : true,
          "type" : "string"
        } ],
        "responses" : {
          "200" : {
            "description" : "getting response",
            "schema" : {
              "$ref" : "#/definitions/expenseItemsServiceRepresentation_978f4a3fe47110001a3243426e540060"
            }
          },
          "default" : {
            "description" : "an error occurred",
            "schema" : {
              "$ref" : "#/definitions/ERROR_MODEL_REFERENCE"
            }
          }
        }
      }
    }
  },
  "securityDefinitions" : {
    "OAuth2" : {
      "type" : "oauth2",
      "authorizationUrl" : "https://<tenant authorization hostname>",
      "flow" : "implicit"
    }
  },
  "definitions" : {
    "INSTANCE_MODEL_REFERENCE" : {
      "type" : "object",
      "required" : [ "id" ],
      "properties" : {
        "id" : {
          "type" : "string",
          "description" : "wid / id / reference id",
          "pattern" : "^(?:(?:[0-9a-f]{32})|(?:[0-9]+\\$[0-9]+)|(\\S+=\\S+))$"
        },
        "descriptor" : {
          "type" : "string",
          "description" : "A description of the instance",
          "readOnly" : true
        },
        "href" : {
          "type" : "string",
          "description" : "A link to the instance",
          "readOnly" : true
        }
      }
    },
    "ERROR_MODEL_REFERENCE" : {
      "type" : "object",
      "required" : [ "error" ],
      "properties" : {
        "error" : {
          "type" : "string",
          "description" : "A description of the error"
        }
      }
    },
    "VALIDATION_ERROR_MODEL_REFERENCE" : {
      "allOf" : [ {
        "$ref" : "#/definitions/ERROR_MODEL_REFERENCE"
      }, {
        "properties" : {
          "errors" : {
            "type" : "array",
            "description" : "An array of validation errors",
            "items" : {
              "$ref" : "#/definitions/ERROR_MODEL_REFERENCE"
            }
          }
        }
      } ]
    },
    "FACETS_MODEL_REFERENCE" : {
      "type" : "array",
      "items" : {
        "type" : "object",
        "description" : "This object represents the possible facets for this resource",
        "readOnly" : true,
        "properties" : {
          "descriptor" : {
            "type" : "string",
            "description" : "A description of the facet"
          },
          "facetParameter" : {
            "type" : "string",
            "description" : "The alias used to select the facet"
          },
          "values" : {
            "type" : "array",
            "description" : "the facet values",
            "items" : {
              "type" : "object",
              "properties" : {
                "count" : {
                  "type" : "integer",
                  "format" : "int32",
                  "description" : "The number of instances returned by this facet"
                },
                "id" : {
                  "type" : "string",
                  "description" : "wid / id / reference id",
                  "pattern" : "^(?:(?:[0-9a-f]{32})|(?:[0-9]+\\$[0-9]+)|(\\S+=\\S+))$"
                },
                "descriptor" : {
                  "type" : "string",
                  "description" : "A description of the facet"
                },
                "href" : {
                  "type" : "string",
                  "description" : "A link to the instance",
                  "readOnly" : true
                }
              },
              "required" : [ "id" ]
            }
          }
        }
      }
    },
    "MULTIPLE_INSTANCE_MODEL_REFERENCE" : {
      "type" : "object",
      "properties" : {
        "total" : {
          "type" : "integer"
        },
        "data" : {
          "type" : "array",
          "items" : {
            "$ref" : "#/definitions/INSTANCE_MODEL_REFERENCE"
          }
        }
      }
    },
    "expenseReportStatus_8a2cd1fe55c61000112cf72d4dc900d8" : {
      "allOf" : [ {
        "$ref" : "#/definitions/INSTANCE_MODEL_REFERENCE"
      }, { } ]
    },
    "reportServiceRepresentation_8a2cd1fe55c610001050b1dcb7ae00c7" : {
      "allOf" : [ {
        "type" : "object",
        "properties" : {
          "totalAmount" : {
            "type" : "object",
            "example" : "378055373",
            "x-workday-type" : "Currency"
          },
          "expenseReportStatus" : {
            "$ref" : "#/definitions/expenseReportStatus_8a2cd1fe55c61000112cf72d4dc900d8"
          },
          "creationDate" : {
            "type" : "string",
            "format" : "date",
            "example" : "2020-04-08T07:00:00.000Z",
            "x-workday-type" : "Date"
          },
          "expenseReportMemo" : {
            "type" : "string",
            "example" : "Lorem ipsum dolor sit amet, cum choro singulis consectetuer ut, ubique iisque contentiones ex duo. Quo lorem etiam eu.",
            "x-workday-type" : "Text"
          },
          "id" : {
            "type" : "string",
            "description" : "Id of the instance"
          },
          "href" : {
            "type" : "string",
            "description" : "A link to the instance"
          },
          "descriptor" : {
            "type" : "string",
            "example" : "Lorem ipsum dolor sit ame",
            "description" : "A preview of the instance"
          }
        }
      } ]
    },
    "payee_9dcae422ca6e1000129b1e7ba3b50065" : {
      "allOf" : [ {
        "$ref" : "#/definitions/INSTANCE_MODEL_REFERENCE"
      }, { } ]
    },
    "worktag_9dcae422ca6e100009fb17cb0b99004c" : {
      "allOf" : [ {
        "$ref" : "#/definitions/worktagsRepresentation_9dcae422ca6e10001a79bedac77f00a3"
      }, { } ]
    },
    "company_7debfd10616e100004ba993bbe7f0039" : {
      "allOf" : [ {
        "$ref" : "#/definitions/INSTANCE_MODEL_REFERENCE"
      }, { } ]
    },
    "reportPostServiceRepresentation_15633761a1ba100008f9c55e17020036" : {
      "allOf" : [ {
        "type" : "object",
        "properties" : {
          "payee" : {
            "$ref" : "#/definitions/payee_9dcae422ca6e1000129b1e7ba3b50065"
          },
          "expenseReportMemo" : {
            "type" : "string",
            "example" : "Lorem ipsum dolor sit amet, cum choro singulis consectetuer ut, ubique iisque contentiones ex duo. Quo lorem etiam eu.",
            "x-workday-type" : "Text"
          },
          "creationDate" : {
            "type" : "string",
            "format" : "date",
            "example" : "2020-04-08T07:00:00.000Z",
            "x-workday-type" : "Date"
          },
          "worktag" : {
            "$ref" : "#/definitions/worktag_9dcae422ca6e100009fb17cb0b99004c"
          },
          "company" : {
            "$ref" : "#/definitions/company_7debfd10616e100004ba993bbe7f0039"
          },
          "id" : {
            "type" : "string",
            "description" : "Id of the instance"
          },
          "descriptor" : {
            "type" : "string",
            "example" : "Lorem ipsum dolor sit ame",
            "description" : "A preview of the instance"
          }
        }
      } ]
    },
    "expenseItem_dce1c1d299a110000cf4000e5823003c" : {
      "allOf" : [ {
        "$ref" : "#/definitions/INSTANCE_MODEL_REFERENCE"
      }, { } ]
    },
    "travelBookingRecord_bace579f29e310000ecf23eea67f00ba" : {
      "allOf" : [ {
        "$ref" : "#/definitions/INSTANCE_MODEL_REFERENCE"
      }, { } ]
    },
    "quickExpense_bace579f29e310000ef5e3b010ac00c7" : {
      "allOf" : [ {
        "$ref" : "#/definitions/INSTANCE_MODEL_REFERENCE"
      }, { } ]
    },
    "creditCardTransaction_bace579f29e310000ee58b02ffcc00c0" : {
      "allOf" : [ {
        "$ref" : "#/definitions/INSTANCE_MODEL_REFERENCE"
      }, { } ]
    },
    "postExpenseReportLineRepresentation_1830200d28b6100004253cd94f0b0025" : {
      "allOf" : [ {
        "type" : "object",
        "properties" : {
          "date" : {
            "type" : "string",
            "format" : "date",
            "example" : "2020-04-08T07:00:00.000Z",
            "x-workday-type" : "Date"
          },
          "expenseItem" : {
            "$ref" : "#/definitions/expenseItem_dce1c1d299a110000cf4000e5823003c"
          },
          "travelBookingRecord" : {
            "$ref" : "#/definitions/travelBookingRecord_bace579f29e310000ecf23eea67f00ba"
          },
          "memo" : {
            "type" : "string",
            "example" : "Lorem ipsum dolor sit amet, cum choro singulis consectetuer ut, ubique iisque contentiones ex duo. Quo lorem etiam eu.",
            "x-workday-type" : "Text"
          },
          "quickExpense" : {
            "$ref" : "#/definitions/quickExpense_bace579f29e310000ef5e3b010ac00c7"
          },
          "creditCardTransaction" : {
            "$ref" : "#/definitions/creditCardTransaction_bace579f29e310000ee58b02ffcc00c0"
          },
          "totalAmount" : {
            "type" : "object",
            "example" : "776649690",
            "x-workday-type" : "Currency"
          },
          "descriptor" : {
            "type" : "string",
            "example" : "Lorem ipsum dolor sit ame",
            "description" : "A preview of the instance"
          },
          "id" : {
            "type" : "string",
            "description" : "Id of the instance"
          }
        }
      } ]
    },
    "expenseReport_057f258f13f11000155ba26caf1700e0" : {
      "allOf" : [ {
        "$ref" : "#/definitions/INSTANCE_MODEL_REFERENCE"
      }, { } ]
    },
    "submitExpenseReportRepresentation_104b24418b4010000cbe2b6be1762d9a" : {
      "allOf" : [ {
        "type" : "object",
        "properties" : {
          "expenseReport" : {
            "$ref" : "#/definitions/expenseReport_057f258f13f11000155ba26caf1700e0"
          },
          "descriptor" : {
            "type" : "string",
            "example" : "Lorem ipsum dolor sit ame",
            "description" : "A preview of the instance"
          },
          "id" : {
            "type" : "string",
            "description" : "Id of the instance"
          }
        }
      } ]
    },
    "expenseItemsServiceRepresentation_978f4a3fe47110001a3243426e540060" : {
      "allOf" : [ {
        "type" : "object",
        "properties" : {
          "descriptor" : {
            "type" : "string",
            "example" : "Lorem ipsum dolor sit ame",
            "description" : "A preview of the instance"
          },
          "id" : {
            "type" : "string",
            "description" : "Id of the instance"
          },
          "href" : {
            "type" : "string",
            "description" : "A link to the instance"
          }
        }
      } ]
    },
    "contentType_0359e103f67510000bc3d7d49e1d000a" : {
      "allOf" : [ {
        "$ref" : "#/definitions/INSTANCE_MODEL_REFERENCE"
      }, { } ]
    },
    "expenseEntryImage_0359e103f67510000bc3d59813370009" : {
      "allOf" : [ {
        "type" : "object",
        "properties" : {
          "fileLength" : {
            "type" : "integer",
            "example" : "469008173",
            "x-workday-type" : "Numeric"
          },
          "fileName" : {
            "type" : "string",
            "example" : "Lorem ipsum dolor sit amet, cum choro singulis consectetuer ut, ubique iisque contentiones ex duo. Quo lorem etiam eu.",
            "maxLength" : 255,
            "x-workday-type" : "Text"
          },
          "contentType" : {
            "$ref" : "#/definitions/contentType_0359e103f67510000bc3d7d49e1d000a"
          },
          "descriptor" : {
            "type" : "string",
            "example" : "Lorem ipsum dolor sit ame",
            "description" : "A preview of the instance"
          },
          "id" : {
            "type" : "string",
            "description" : "Id of the instance"
          },
          "href" : {
            "type" : "string",
            "description" : "A link to the instance"
          }
        }
      } ]
    },
    "expenseItem_5363b1faa0fa100002082ebc1c20007f" : {
      "allOf" : [ {
        "$ref" : "#/definitions/INSTANCE_MODEL_REFERENCE"
      }, { } ]
    },
    "image_66c3ac49ebb710001d691be881660026" : {
      "allOf" : [ {
        "$ref" : "#/definitions/INSTANCE_MODEL_REFERENCE"
      }, { } ]
    },
    "entryServicePUTRepresentation_66c3ac49ebb710001d691bc579b30022" : {
      "allOf" : [ {
        "type" : "object",
        "required" : [ "date" ],
        "properties" : {
          "attachments" : {
            "type" : "array",
            "items" : {
              "$ref" : "#/definitions/expenseEntryImage_0359e103f67510000bc3d59813370009"
            },
            "x-workday-type" : "Multi-instance"
          },
          "amount" : {
            "type" : "object",
            "example" : "1112531002",
            "x-workday-type" : "Currency"
          },
          "merchant" : {
            "type" : "string",
            "example" : "Lorem ipsum dolor sit amet, cum choro singulis consectetuer ut, ubique iisque contentiones ex duo. Quo lorem etiam eu.",
            "x-workday-type" : "Text"
          },
          "expenseItem" : {
            "$ref" : "#/definitions/expenseItem_5363b1faa0fa100002082ebc1c20007f"
          },
          "date" : {
            "type" : "string",
            "format" : "date",
            "example" : "2020-04-08T07:00:00.000Z",
            "x-workday-type" : "Date"
          },
          "memo" : {
            "type" : "string",
            "example" : "Lorem ipsum dolor sit amet, cum choro singulis consectetuer ut, ubique iisque contentiones ex duo. Quo lorem etiam eu.",
            "x-workday-type" : "Text"
          },
          "image" : {
            "$ref" : "#/definitions/image_66c3ac49ebb710001d691be881660026"
          },
          "id" : {
            "type" : "string",
            "description" : "Id of the instance"
          },
          "href" : {
            "type" : "string",
            "description" : "A link to the instance"
          },
          "descriptor" : {
            "type" : "string",
            "example" : "Lorem ipsum dolor sit ame",
            "description" : "A preview of the instance"
          }
        }
      } ]
    },
    "worktagsRepresentation_9dcae422ca6e10001a79bedac77f00a3" : {
      "allOf" : [ {
        "type" : "object",
        "properties" : {
          "descriptor" : {
            "type" : "string",
            "example" : "Lorem ipsum dolor sit ame",
            "description" : "A preview of the instance"
          },
          "id" : {
            "type" : "string",
            "description" : "Id of the instance"
          }
        }
      } ]
    },
    "expenseEntryStatus_7db380b67cfa100007fce08f3c4200f2" : {
      "allOf" : [ {
        "$ref" : "#/definitions/INSTANCE_MODEL_REFERENCE"
      }, { } ]
    },
    "entryType_7955a503742f1000117f1e32913906c4" : {
      "allOf" : [ {
        "$ref" : "#/definitions/INSTANCE_MODEL_REFERENCE"
      }, { } ]
    },
    "scanStatus_04ce195ed8e1100008202fa8279800a0" : {
      "allOf" : [ {
        "$ref" : "#/definitions/INSTANCE_MODEL_REFERENCE"
      }, { } ]
    },
    "expenseItem_04ce195ed8e1100008202ffbad0800a4" : {
      "allOf" : [ {
        "$ref" : "#/definitions/INSTANCE_MODEL_REFERENCE"
      }, { } ]
    },
    "expenseEntryServiceRepresentation_04ce195ed8e1100006b9abb50a91009b" : {
      "allOf" : [ {
        "type" : "object",
        "properties" : {
          "expenseEntryStatus" : {
            "$ref" : "#/definitions/expenseEntryStatus_7db380b67cfa100007fce08f3c4200f2"
          },
          "amount" : {
            "type" : "object",
            "example" : "604487592",
            "x-workday-type" : "Currency"
          },
          "memo" : {
            "type" : "string",
            "example" : "Lorem ipsum dolor sit amet, cum choro singulis consectetuer ut, ubique iisque contentiones ex duo. Quo lorem etiam eu.",
            "x-workday-type" : "Text"
          },
          "entryType" : {
            "$ref" : "#/definitions/entryType_7955a503742f1000117f1e32913906c4"
          },
          "date" : {
            "type" : "string",
            "format" : "date",
            "example" : "2020-04-08T07:00:00.000Z",
            "x-workday-type" : "Date"
          },
          "scanStatus" : {
            "$ref" : "#/definitions/scanStatus_04ce195ed8e1100008202fa8279800a0"
          },
          "attachments" : {
            "type" : "array",
            "items" : {
              "$ref" : "#/definitions/expenseEntryImage_0359e103f67510000bc3d59813370009"
            },
            "x-workday-type" : "Multi-instance"
          },
          "merchant" : {
            "type" : "string",
            "example" : "Lorem ipsum dolor sit amet, cum choro singulis consectetuer ut, ubique iisque contentiones ex duo. Quo lorem etiam eu.",
            "x-workday-type" : "Text"
          },
          "expenseItem" : {
            "$ref" : "#/definitions/expenseItem_04ce195ed8e1100008202ffbad0800a4"
          },
          "hasOCRReceipt" : {
            "type" : "boolean",
            "example" : true,
            "x-workday-type" : "Boolean"
          },
          "id" : {
            "type" : "string",
            "description" : "Id of the instance"
          },
          "href" : {
            "type" : "string",
            "description" : "A link to the instance"
          },
          "descriptor" : {
            "type" : "string",
            "example" : "Lorem ipsum dolor sit ame",
            "description" : "A preview of the instance"
          }
        }
      } ]
    },
    "scanStatus_0855dbb1e2cf1000096a2875ecca0080" : {
      "allOf" : [ {
        "$ref" : "#/definitions/INSTANCE_MODEL_REFERENCE"
      }, { } ]
    },
    "expenseItem_73c1b93c159310000d98116fe03d0012" : {
      "allOf" : [ {
        "$ref" : "#/definitions/INSTANCE_MODEL_REFERENCE"
      }, { } ]
    },
    "entryServiceRepresentation_f953826a7423100009260722651a0031" : {
      "allOf" : [ {
        "type" : "object",
        "properties" : {
          "attachments" : {
            "type" : "array",
            "items" : {
              "$ref" : "#/definitions/expenseEntryImage_0359e103f67510000bc3d59813370009"
            },
            "x-workday-type" : "Multi-instance"
          },
          "hasOCRReceipt" : {
            "type" : "boolean",
            "example" : true,
            "x-workday-type" : "Boolean"
          },
          "scanStatus" : {
            "$ref" : "#/definitions/scanStatus_0855dbb1e2cf1000096a2875ecca0080"
          },
          "amount" : {
            "type" : "object",
            "example" : "894719831",
            "x-workday-type" : "Currency"
          },
          "memo" : {
            "type" : "string",
            "example" : "Lorem ipsum dolor sit amet, cum choro singulis consectetuer ut, ubique iisque contentiones ex duo. Quo lorem etiam eu.",
            "x-workday-type" : "Text"
          },
          "expenseItem" : {
            "$ref" : "#/definitions/expenseItem_73c1b93c159310000d98116fe03d0012"
          },
          "date" : {
            "type" : "string",
            "format" : "date",
            "example" : "2020-04-08T07:00:00.000Z",
            "x-workday-type" : "Date"
          },
          "merchant" : {
            "type" : "string",
            "example" : "Lorem ipsum dolor sit amet, cum choro singulis consectetuer ut, ubique iisque contentiones ex duo. Quo lorem etiam eu.",
            "x-workday-type" : "Text"
          },
          "descriptor" : {
            "type" : "string",
            "example" : "Lorem ipsum dolor sit ame",
            "description" : "A preview of the instance"
          },
          "id" : {
            "type" : "string",
            "description" : "Id of the instance"
          },
          "href" : {
            "type" : "string",
            "description" : "A link to the instance"
          }
        }
      } ]
    }
  }
}